\relax 
\bbl@cs{beforestart}
\catcode `"\active 
\babel@aux{russian}{}
\@writefile{toc}{\contentsline {chapter}{Введение}{2}\protected@file@percent }
\@writefile{toc}{\contentsline {paragraph}{  }{2}\protected@file@percent }
\citation{diskr}
\citation{commi2}
\citation{commi}
\@writefile{toc}{\contentsline {chapter}{\numberline {1}Аналитическая часть}{3}\protected@file@percent }
\@writefile{lof}{\addvspace {10\p@ }}
\@writefile{lot}{\addvspace {10\p@ }}
\@writefile{toc}{\contentsline {paragraph}{     }{3}\protected@file@percent }
\@writefile{toc}{\contentsline {section}{\numberline {1.1}Постановка задачи}{3}\protected@file@percent }
\@writefile{toc}{\contentsline {paragraph}{     }{3}\protected@file@percent }
\@writefile{toc}{\contentsline {section}{\numberline {1.2}Задача коммивояжера}{3}\protected@file@percent }
\@writefile{toc}{\contentsline {paragraph}{     }{3}\protected@file@percent }
\@writefile{toc}{\contentsline {section}{\numberline {1.3}Решение полным перебором}{3}\protected@file@percent }
\@writefile{toc}{\contentsline {paragraph}{     }{3}\protected@file@percent }
\citation{ant1}
\citation{shtovba}
\@writefile{toc}{\contentsline {section}{\numberline {1.4}Муравьиные алгоритмы}{4}\protected@file@percent }
\@writefile{toc}{\contentsline {paragraph}{   }{4}\protected@file@percent }
\newlabel{form:way}{{1.1}{6}}
\newlabel{form:eva}{{1.2}{6}}
\@writefile{toc}{\contentsline {section}{\numberline {1.5}Муравьиный алгоритм в задаче коммивояжера}{7}\protected@file@percent }
\@writefile{toc}{\contentsline {paragraph}{   }{7}\protected@file@percent }
\newlabel{form:add}{{1.3}{8}}
\newlabel{form:add1}{{1.4}{8}}
\@writefile{toc}{\contentsline {section}{Введение}{8}\protected@file@percent }
\@writefile{toc}{\contentsline {paragraph}{     }{8}\protected@file@percent }
\@writefile{toc}{\contentsline {chapter}{\numberline {2}Конструкторская часть}{9}\protected@file@percent }
\@writefile{lof}{\addvspace {10\p@ }}
\@writefile{lot}{\addvspace {10\p@ }}
\@writefile{toc}{\contentsline {paragraph}{     }{9}\protected@file@percent }
\@writefile{toc}{\contentsline {section}{\numberline {2.1}Требования к программе}{9}\protected@file@percent }
\@writefile{toc}{\contentsline {section}{\numberline {2.2}Схемы алгоритмов}{9}\protected@file@percent }
\@writefile{toc}{\contentsline {paragraph}{     }{9}\protected@file@percent }
\@writefile{lof}{\contentsline {figure}{\numberline {2.1}{\ignorespaces Схема алгоритма полного перебора}}{10}\protected@file@percent }
\newlabel{fig:f_p}{{2.1}{10}}
\@writefile{lof}{\contentsline {figure}{\numberline {2.2}{\ignorespaces Схема муравьиного агоритма}}{11}\protected@file@percent }
\newlabel{fig:ant}{{2.2}{11}}
\@writefile{toc}{\contentsline {section}{Вывод}{12}\protected@file@percent }
\@writefile{toc}{\contentsline {paragraph}{     }{12}\protected@file@percent }
\citation{Swift}
\citation{Xcode}
\@writefile{toc}{\contentsline {chapter}{\numberline {3}Технологическая часть}{13}\protected@file@percent }
\@writefile{lof}{\addvspace {10\p@ }}
\@writefile{lot}{\addvspace {10\p@ }}
\@writefile{toc}{\contentsline {paragraph}{     }{13}\protected@file@percent }
\@writefile{toc}{\contentsline {section}{\numberline {3.1}Выбор ЯП}{13}\protected@file@percent }
\@writefile{toc}{\contentsline {paragraph}{     }{13}\protected@file@percent }
\@writefile{toc}{\contentsline {section}{\numberline {3.2}Листинг кода алгоритмов}{13}\protected@file@percent }
\@writefile{toc}{\contentsline {paragraph}{     }{13}\protected@file@percent }
\newlabel{some-code}{{3.1}{13}}
\@writefile{lol}{\contentsline {lstlisting}{\numberline {3.1}Алгоритм поиска полным перебором}{13}\protected@file@percent }
\newlabel{some-code}{{3.2}{14}}
\@writefile{lol}{\contentsline {lstlisting}{\numberline {3.2}Алгоритм поиска всех перестановок}{14}\protected@file@percent }
\newlabel{some-code}{{3.3}{15}}
\@writefile{lol}{\contentsline {lstlisting}{\numberline {3.3}Муравьиный алгоритм}{15}\protected@file@percent }
\@writefile{toc}{\contentsline {section}{\numberline {3.3}Тестирование разработанных функций}{17}\protected@file@percent }
\@writefile{toc}{\contentsline {paragraph}{     }{17}\protected@file@percent }
\@writefile{toc}{\contentsline {paragraph}{}{17}\protected@file@percent }
\@writefile{toc}{\contentsline {section}{\numberline {3.4}Вывод}{17}\protected@file@percent }
\@writefile{toc}{\contentsline {paragraph}{     }{17}\protected@file@percent }
\@writefile{lof}{\contentsline {figure}{\numberline {3.1}{\ignorespaces Граф}}{18}\protected@file@percent }
\newlabel{fig:mpr}{{3.1}{18}}
\@writefile{lof}{\contentsline {figure}{\numberline {3.2}{\ignorespaces Функция полного перебора}}{18}\protected@file@percent }
\newlabel{fig:mpr}{{3.2}{18}}
\@writefile{lof}{\contentsline {figure}{\numberline {3.3}{\ignorespaces Функция муравьиного алгоритма}}{19}\protected@file@percent }
\newlabel{fig:mpr}{{3.3}{19}}
\@writefile{toc}{\contentsline {paragraph}{}{19}\protected@file@percent }
\@writefile{toc}{\contentsline {chapter}{\numberline {4}Исследовательская часть}{20}\protected@file@percent }
\@writefile{lof}{\addvspace {10\p@ }}
\@writefile{lot}{\addvspace {10\p@ }}
\@writefile{toc}{\contentsline {paragraph}{     }{20}\protected@file@percent }
\@writefile{toc}{\contentsline {section}{\numberline {4.1}Сравнительный анализ на основе замеров времени}{20}\protected@file@percent }
\@writefile{toc}{\contentsline {paragraph}{     }{20}\protected@file@percent }
\@writefile{toc}{\contentsline {section}{\numberline {4.2}Параметризация муравьиного алгоритма}{21}\protected@file@percent }
\@writefile{toc}{\contentsline {paragraph}{     }{21}\protected@file@percent }
\@writefile{lot}{\contentsline {table}{\numberline {4.1}{\ignorespaces Результаты решения задачи параметризации}}{22}\protected@file@percent }
\@writefile{toc}{\contentsline {section}{Вывод}{22}\protected@file@percent }
\@writefile{toc}{\contentsline {paragraph}{     }{22}\protected@file@percent }
\@writefile{toc}{\contentsline {chapter}{Заключение}{23}\protected@file@percent }
\@writefile{toc}{\contentsline {paragraph}{     }{23}\protected@file@percent }
\@writefile{toc}{\contentsline {chapter}{Список литературы}{23}\protected@file@percent }
\bibcite{diskr}{1}
\bibcite{commi2}{2}
\bibcite{commi}{3}
\bibcite{ant1}{4}
\bibcite{shtovba}{5}
\bibcite{Beloysov}{6}
\bibcite{Swift}{7}
\bibcite{Xcode}{8}
