\relax 
\bbl@cs{beforestart}
\catcode `"\active 
\babel@aux{russian}{}
\@writefile{toc}{\contentsline {chapter}{Введение}{2}\protected@file@percent }
\@writefile{toc}{\contentsline {paragraph}{}{2}\protected@file@percent }
\@writefile{toc}{\contentsline {paragraph}{}{2}\protected@file@percent }
\citation{mednov}
\citation{wiki}
\citation{ford}
\@writefile{toc}{\contentsline {chapter}{\numberline {1}Аналитическая часть}{3}\protected@file@percent }
\@writefile{lof}{\addvspace {10\p@ }}
\@writefile{lot}{\addvspace {10\p@ }}
\@writefile{toc}{\contentsline {paragraph}{     }{3}\protected@file@percent }
\@writefile{toc}{\contentsline {section}{\numberline {1.1}Общие сведения о конвейерной обработке}{3}\protected@file@percent }
\@writefile{toc}{\contentsline {paragraph}{     }{3}\protected@file@percent }
\@writefile{toc}{\contentsline {section}{\numberline {1.2}Параллельное программирование}{3}\protected@file@percent }
\@writefile{toc}{\contentsline {paragraph}{     }{3}\protected@file@percent }
\@writefile{toc}{\contentsline {paragraph}{     }{4}\protected@file@percent }
\@writefile{toc}{\contentsline {paragraph}{     }{4}\protected@file@percent }
\@writefile{toc}{\contentsline {paragraph}{     }{4}\protected@file@percent }
\@writefile{toc}{\contentsline {subsection}{\numberline {1.2.1}Организация взаимодействия параллельных потоков}{4}\protected@file@percent }
\@writefile{toc}{\contentsline {paragraph}{     }{4}\protected@file@percent }
\@writefile{toc}{\contentsline {section}{\numberline {1.3}Вывод}{5}\protected@file@percent }
\@writefile{toc}{\contentsline {paragraph}{     }{5}\protected@file@percent }
\@writefile{toc}{\contentsline {chapter}{\numberline {2}Конструкторская часть}{6}\protected@file@percent }
\@writefile{lof}{\addvspace {10\p@ }}
\@writefile{lot}{\addvspace {10\p@ }}
\@writefile{toc}{\contentsline {paragraph}{     }{6}\protected@file@percent }
\@writefile{toc}{\contentsline {section}{\numberline {2.1}Основные требования к программе}{6}\protected@file@percent }
\@writefile{toc}{\contentsline {section}{\numberline {2.2}Организация обработки}{6}\protected@file@percent }
\@writefile{toc}{\contentsline {paragraph}{     }{6}\protected@file@percent }
\@writefile{toc}{\contentsline {section}{\numberline {2.3}Вывод}{7}\protected@file@percent }
\@writefile{toc}{\contentsline {paragraph}{     }{7}\protected@file@percent }
\citation{Swift}
\citation{Code}
\@writefile{toc}{\contentsline {chapter}{\numberline {3}Технологическая часть}{8}\protected@file@percent }
\@writefile{lof}{\addvspace {10\p@ }}
\@writefile{lot}{\addvspace {10\p@ }}
\@writefile{toc}{\contentsline {paragraph}{     }{8}\protected@file@percent }
\@writefile{toc}{\contentsline {section}{\numberline {3.1}Выбор ЯП}{8}\protected@file@percent }
\@writefile{toc}{\contentsline {paragraph}{     }{8}\protected@file@percent }
\@writefile{toc}{\contentsline {section}{\numberline {3.2}Листинг кода алгоритмов}{8}\protected@file@percent }
\@writefile{toc}{\contentsline {paragraph}{     }{8}\protected@file@percent }
\newlabel{some-code}{{3.1}{8}}
\@writefile{lol}{\contentsline {lstlisting}{\numberline {3.1}функция конвейерной обработки}{8}\protected@file@percent }
\newlabel{some-code}{{3.2}{11}}
\@writefile{lol}{\contentsline {lstlisting}{\numberline {3.2}функция линейной обработки}{11}\protected@file@percent }
\@writefile{toc}{\contentsline {section}{\numberline {3.3}Тестирование разработанных функций}{12}\protected@file@percent }
\@writefile{toc}{\contentsline {paragraph}{     }{12}\protected@file@percent }
\@writefile{lof}{\contentsline {figure}{\numberline {3.1}{\ignorespaces Линейная обработка}}{12}\protected@file@percent }
\newlabel{fig:mpr}{{3.1}{12}}
\@writefile{lof}{\contentsline {figure}{\numberline {3.2}{\ignorespaces Конвейерная обработка}}{13}\protected@file@percent }
\newlabel{fig:mpr}{{3.2}{13}}
\@writefile{toc}{\contentsline {paragraph}{}{13}\protected@file@percent }
\@writefile{toc}{\contentsline {section}{\numberline {3.4}Вывод}{14}\protected@file@percent }
\@writefile{toc}{\contentsline {chapter}{\numberline {4}Исследовательская часть}{15}\protected@file@percent }
\@writefile{lof}{\addvspace {10\p@ }}
\@writefile{lot}{\addvspace {10\p@ }}
\@writefile{toc}{\contentsline {paragraph}{     }{15}\protected@file@percent }
\@writefile{toc}{\contentsline {section}{\numberline {4.1}Сравнительный анализ на основе замеров времени}{15}\protected@file@percent }
\@writefile{toc}{\contentsline {paragraph}{     }{15}\protected@file@percent }
\@writefile{toc}{\contentsline {section}{\numberline {4.2}Вывод}{16}\protected@file@percent }
\@writefile{toc}{\contentsline {paragraph}{     }{16}\protected@file@percent }
\@writefile{toc}{\contentsline {chapter}{Заключение}{17}\protected@file@percent }
\@writefile{toc}{\contentsline {paragraph}{     }{17}\protected@file@percent }
\@writefile{toc}{\contentsline {paragraph}{     }{17}\protected@file@percent }
\@writefile{toc}{\contentsline {paragraph}{     }{17}\protected@file@percent }
\@writefile{toc}{\contentsline {chapter}{Список литературы}{17}\protected@file@percent }
\bibcite{mednov}{1}
\bibcite{wiki}{2}
\bibcite{ford}{3}
\bibcite{Swift}{4}
\bibcite{mach}{5}
\bibcite{Catalina}{6}
\bibcite{Code}{7}
