\relax 
\bbl@cs{beforestart}
\catcode `"\active 
\babel@aux{russian}{}
\@writefile{toc}{\contentsline {chapter}{Введение}{2}\protected@file@percent }
\@writefile{toc}{\contentsline {paragraph}{  }{2}\protected@file@percent }
\citation{dict}
\@writefile{toc}{\contentsline {chapter}{\numberline {1}Аналитическая часть}{3}\protected@file@percent }
\@writefile{lof}{\addvspace {10\p@ }}
\@writefile{lot}{\addvspace {10\p@ }}
\@writefile{toc}{\contentsline {paragraph}{     }{3}\protected@file@percent }
\@writefile{toc}{\contentsline {section}{\numberline {1.1}Постановка задачи}{3}\protected@file@percent }
\@writefile{toc}{\contentsline {paragraph}{     }{3}\protected@file@percent }
\@writefile{toc}{\contentsline {section}{\numberline {1.2}Простой поиск}{3}\protected@file@percent }
\@writefile{toc}{\contentsline {paragraph}{     }{3}\protected@file@percent }
\@writefile{toc}{\contentsline {section}{\numberline {1.3}Бинарный поиск}{4}\protected@file@percent }
\@writefile{toc}{\contentsline {paragraph}{     }{4}\protected@file@percent }
\@writefile{toc}{\contentsline {section}{\numberline {1.4}Использование сегментов}{4}\protected@file@percent }
\@writefile{toc}{\contentsline {paragraph}{     }{4}\protected@file@percent }
\@writefile{toc}{\contentsline {section}{\numberline {1.5}Использование сегментов, сформированных по принципу частотности}{4}\protected@file@percent }
\@writefile{toc}{\contentsline {paragraph}{     }{4}\protected@file@percent }
\@writefile{toc}{\contentsline {section}{Введение}{5}\protected@file@percent }
\@writefile{toc}{\contentsline {paragraph}{     }{5}\protected@file@percent }
\@writefile{toc}{\contentsline {chapter}{\numberline {2}Конструкторская часть}{6}\protected@file@percent }
\@writefile{lof}{\addvspace {10\p@ }}
\@writefile{lot}{\addvspace {10\p@ }}
\@writefile{toc}{\contentsline {paragraph}{     }{6}\protected@file@percent }
\@writefile{toc}{\contentsline {section}{\numberline {2.1}Требования к программе}{6}\protected@file@percent }
\@writefile{toc}{\contentsline {section}{\numberline {2.2}Схемы алгоритмов}{6}\protected@file@percent }
\@writefile{toc}{\contentsline {paragraph}{     }{6}\protected@file@percent }
\@writefile{lof}{\contentsline {figure}{\numberline {2.1}{\ignorespaces линейный поиск}}{7}\protected@file@percent }
\@writefile{lof}{\contentsline {figure}{\numberline {2.2}{\ignorespaces бинарный поиск}}{8}\protected@file@percent }
\@writefile{lof}{\contentsline {figure}{\numberline {2.3}{\ignorespaces алгоритм с сегментацией}}{9}\protected@file@percent }
\@writefile{lof}{\contentsline {figure}{\numberline {2.4}{\ignorespaces алгоритм сегментации по принципу частотности}}{10}\protected@file@percent }
\@writefile{toc}{\contentsline {paragraph}{     }{11}\protected@file@percent }
\citation{Swift}
\citation{Xcode}
\@writefile{toc}{\contentsline {chapter}{\numberline {3}Технологическая часть}{12}\protected@file@percent }
\@writefile{lof}{\addvspace {10\p@ }}
\@writefile{lot}{\addvspace {10\p@ }}
\@writefile{toc}{\contentsline {paragraph}{     }{12}\protected@file@percent }
\@writefile{toc}{\contentsline {section}{\numberline {3.1}Выбор ЯП}{12}\protected@file@percent }
\@writefile{toc}{\contentsline {paragraph}{     }{12}\protected@file@percent }
\@writefile{toc}{\contentsline {section}{\numberline {3.2}Листинг кода алгоритмов}{12}\protected@file@percent }
\@writefile{toc}{\contentsline {paragraph}{     }{12}\protected@file@percent }
\newlabel{some-code}{{3.1}{12}}
\@writefile{lol}{\contentsline {lstlisting}{\numberline {3.1}алгоритм линейного поиска}{12}\protected@file@percent }
\newlabel{some-code}{{3.2}{13}}
\@writefile{lol}{\contentsline {lstlisting}{\numberline {3.2}алгоритм бинарного поиска}{13}\protected@file@percent }
\newlabel{some-code}{{3.3}{13}}
\@writefile{lol}{\contentsline {lstlisting}{\numberline {3.3}алгоритм с сегментацией}{13}\protected@file@percent }
\newlabel{some-code}{{3.4}{14}}
\@writefile{lol}{\contentsline {lstlisting}{\numberline {3.4}алгоритм сегментации по принципу частотности}{14}\protected@file@percent }
\@writefile{toc}{\contentsline {section}{\numberline {3.3}Тестирование разработанных функций}{14}\protected@file@percent }
\@writefile{toc}{\contentsline {paragraph}{     }{14}\protected@file@percent }
\@writefile{toc}{\contentsline {paragraph}{}{14}\protected@file@percent }
\@writefile{lof}{\contentsline {figure}{\numberline {3.1}{\ignorespaces тест на поиск хайкиков, нанесенных Jacare Souza}}{15}\protected@file@percent }
\@writefile{lof}{\contentsline {figure}{\numberline {3.2}{\ignorespaces тест на поиск хайкиков, нанесенных Stipe Miocic}}{16}\protected@file@percent }
\@writefile{lof}{\contentsline {figure}{\numberline {3.3}{\ignorespaces тест на поиск хайкиков, нанесенных Nate Diaz}}{17}\protected@file@percent }
\@writefile{toc}{\contentsline {paragraph}{}{17}\protected@file@percent }
\@writefile{toc}{\contentsline {section}{\numberline {3.4}Вывод}{18}\protected@file@percent }
\@writefile{toc}{\contentsline {paragraph}{     }{18}\protected@file@percent }
\@writefile{toc}{\contentsline {chapter}{\numberline {4}Исследовательская часть}{19}\protected@file@percent }
\@writefile{lof}{\addvspace {10\p@ }}
\@writefile{lot}{\addvspace {10\p@ }}
\@writefile{toc}{\contentsline {paragraph}{     }{19}\protected@file@percent }
\@writefile{toc}{\contentsline {section}{\numberline {4.1}Сравнительный анализ на основе замеров времени}{19}\protected@file@percent }
\@writefile{toc}{\contentsline {paragraph}{     }{19}\protected@file@percent }
\@writefile{lot}{\contentsline {table}{\numberline {4.1}{\ignorespaces Время работы алгоритма простого поиска(в секундах)}}{19}\protected@file@percent }
\@writefile{lot}{\contentsline {table}{\numberline {4.2}{\ignorespaces Время работы алгоритма бинарного поиска(в секундах)}}{20}\protected@file@percent }
\@writefile{lot}{\contentsline {table}{\numberline {4.3}{\ignorespaces Время работы алгоритма сегментного поиска(в секундах)}}{20}\protected@file@percent }
\@writefile{lot}{\contentsline {table}{\numberline {4.4}{\ignorespaces Время работы алгоритма сементизации по принципу частотности(в секундах)}}{20}\protected@file@percent }
\@writefile{toc}{\contentsline {paragraph}{     }{21}\protected@file@percent }
\@writefile{lof}{\contentsline {figure}{\numberline {4.1}{\ignorespaces сравнение временных характеристик алгоритмов поиска}}{21}\protected@file@percent }
\@writefile{toc}{\contentsline {section}{Вывод}{21}\protected@file@percent }
\@writefile{toc}{\contentsline {paragraph}{     }{21}\protected@file@percent }
\@writefile{toc}{\contentsline {chapter}{Заключение}{22}\protected@file@percent }
\@writefile{toc}{\contentsline {paragraph}{     }{22}\protected@file@percent }
\@writefile{toc}{\contentsline {chapter}{Список литературы}{22}\protected@file@percent }
\bibcite{Swift}{1}
\bibcite{Xcode}{2}
\bibcite{dict}{3}
