\relax 
\bbl@cs{beforestart}
\catcode `"\active 
\babel@aux{russian}{}
\@writefile{toc}{\contentsline {chapter}{Введение}{2}\protected@file@percent }
\@writefile{toc}{\contentsline {chapter}{\numberline {1}Аналитическая часть}{4}\protected@file@percent }
\@writefile{lof}{\addvspace {10\p@ }}
\@writefile{lot}{\addvspace {10\p@ }}
\@writefile{toc}{\contentsline {section}{\numberline {1.1}Вывод}{5}\protected@file@percent }
\@writefile{toc}{\contentsline {chapter}{\numberline {2}Конструкторская часть}{6}\protected@file@percent }
\@writefile{lof}{\addvspace {10\p@ }}
\@writefile{lot}{\addvspace {10\p@ }}
\@writefile{toc}{\contentsline {section}{\numberline {2.1}Схемы алгоритмов}{6}\protected@file@percent }
\@writefile{lof}{\contentsline {figure}{\numberline {2.1}{\ignorespaces Схема рекурсивного алгоритма нахождения расстояния Левенштейна}}{7}\protected@file@percent }
\newlabel{fig:mpr}{{2.1}{7}}
\@writefile{lof}{\contentsline {figure}{\numberline {2.2}{\ignorespaces Схема рекурсивного алгоритма нахождения расстояния Левенштейна с матричной оптимизацией}}{8}\protected@file@percent }
\newlabel{fig:mpr}{{2.2}{8}}
\@writefile{lof}{\contentsline {figure}{\numberline {2.3}{\ignorespaces Схема матричного алгоритма нахождения расстояния Левенштейна}}{9}\protected@file@percent }
\newlabel{fig:mpr}{{2.3}{9}}
\@writefile{lof}{\contentsline {figure}{\numberline {2.4}{\ignorespaces Схема матричного алгоритма нахождения расстояния Дамерау-Левенштейна}}{10}\protected@file@percent }
\newlabel{fig:mpr}{{2.4}{10}}
\@writefile{toc}{\contentsline {chapter}{\numberline {3}Технологическая часть}{11}\protected@file@percent }
\@writefile{lof}{\addvspace {10\p@ }}
\@writefile{lot}{\addvspace {10\p@ }}
\@writefile{toc}{\contentsline {section}{\numberline {3.1}Выбор ЯП}{11}\protected@file@percent }
\@writefile{toc}{\contentsline {section}{\numberline {3.2}Реализация алгоритма}{11}\protected@file@percent }
\newlabel{some-code}{{3.1}{11}}
\@writefile{lol}{\contentsline {lstlisting}{\numberline {3.1}Функция нахождения расстояния Левенштейна рекурсивно}{11}\protected@file@percent }
\newlabel{some-code}{{3.2}{11}}
\@writefile{lol}{\contentsline {lstlisting}{\numberline {3.2}Функция удаления последнего символа в строке}{11}\protected@file@percent }
\newlabel{some-code}{{3.3}{12}}
\@writefile{lol}{\contentsline {lstlisting}{\numberline {3.3}Функция нахождения расстояния Левенштейна рекурсивно с матрицей}{12}\protected@file@percent }
\newlabel{some-code}{{3.4}{12}}
\@writefile{lol}{\contentsline {lstlisting}{\numberline {3.4}Функция нахождения расстояния Левенштейна матрично}{12}\protected@file@percent }
\newlabel{some-code}{{3.5}{13}}
\@writefile{lol}{\contentsline {lstlisting}{\numberline {3.5}Функция нахождения расстояния Дамерау-Левенштейна матрично}{13}\protected@file@percent }
\newlabel{some-code}{{3.6}{14}}
\@writefile{lol}{\contentsline {lstlisting}{\numberline {3.6}Функция проверки транпозиции}{14}\protected@file@percent }
\@writefile{toc}{\contentsline {chapter}{\numberline {4}Исследовательская часть}{15}\protected@file@percent }
\@writefile{lof}{\addvspace {10\p@ }}
\@writefile{lot}{\addvspace {10\p@ }}
\@writefile{toc}{\contentsline {section}{\numberline {4.1}Сравнительный анализ на основе замеров времени работы алгоритмов}{15}\protected@file@percent }
\@writefile{lot}{\contentsline {table}{\numberline {4.1}{\ignorespaces Процессорное время исполнения}}{15}\protected@file@percent }
\@writefile{lot}{\contentsline {table}{\numberline {4.2}{\ignorespaces Таблица тестовых данных}}{17}\protected@file@percent }
\@writefile{toc}{\contentsline {section}{\numberline {4.2}Тесты}{17}\protected@file@percent }
\bibstyle{utf8gost705u}
\citation{*}
\bibdata{51-biblio}
\@writefile{toc}{\contentsline {chapter}{Заключение}{18}\protected@file@percent }
\@writefile{toc}{\contentsline {chapter}{Литература}{18}\protected@file@percent }
\bibcite{Levenshtein}{1}
\bibcite{swiftlang}{2}
\bibcite{timing}{3}
\bibcite{macOs}{4}
\bibcite{intel}{5}
