\relax 
\bbl@cs{beforestart}
\catcode `"\active 
\babel@aux{russian}{}
\@writefile{toc}{\contentsline {chapter}{Введение}{2}\protected@file@percent }
\@writefile{toc}{\contentsline {paragraph}{     }{2}\protected@file@percent }
\citation{Beloysov}
\citation{Beloysov}
\@writefile{toc}{\contentsline {chapter}{\numberline {1}Аналитическая часть}{3}\protected@file@percent }
\@writefile{lof}{\addvspace {10\p@ }}
\@writefile{lot}{\addvspace {10\p@ }}
\@writefile{toc}{\contentsline {paragraph}{      }{3}\protected@file@percent }
\@writefile{toc}{\contentsline {paragraph}{     }{3}\protected@file@percent }
\@writefile{toc}{\contentsline {section}{\numberline {1.1}Параллельное программирование}{3}\protected@file@percent }
\@writefile{toc}{\contentsline {paragraph}{     }{3}\protected@file@percent }
\@writefile{toc}{\contentsline {paragraph}{     }{4}\protected@file@percent }
\@writefile{toc}{\contentsline {subsection}{\numberline {1.1.1}Организация взаимодействия параллельных потоков}{4}\protected@file@percent }
\@writefile{toc}{\contentsline {paragraph}{     }{4}\protected@file@percent }
\@writefile{toc}{\contentsline {section}{\numberline {1.2}Вывод}{4}\protected@file@percent }
\@writefile{toc}{\contentsline {paragraph}{     }{4}\protected@file@percent }
\@writefile{toc}{\contentsline {chapter}{\numberline {2}Конструкторская часть}{5}\protected@file@percent }
\@writefile{lof}{\addvspace {10\p@ }}
\@writefile{lot}{\addvspace {10\p@ }}
\@writefile{toc}{\contentsline {paragraph}{     }{5}\protected@file@percent }
\@writefile{toc}{\contentsline {section}{\numberline {2.1}Схемы алгоритмов}{5}\protected@file@percent }
\@writefile{toc}{\contentsline {paragraph}{     }{5}\protected@file@percent }
\@writefile{lof}{\contentsline {figure}{\numberline {2.1}{\ignorespaces Схема стандартного алгоритма умножения}}{6}\protected@file@percent }
\newlabel{fig:mpr}{{2.1}{6}}
\@writefile{toc}{\contentsline {section}{\numberline {2.2}Распараллеливание программы}{7}\protected@file@percent }
\@writefile{toc}{\contentsline {paragraph}{     }{7}\protected@file@percent }
\@writefile{toc}{\contentsline {section}{\numberline {2.3}Вывод}{7}\protected@file@percent }
\@writefile{toc}{\contentsline {paragraph}{     }{7}\protected@file@percent }
\citation{Swift}
\citation{Code}
\@writefile{toc}{\contentsline {chapter}{\numberline {3}Технологическая часть}{8}\protected@file@percent }
\@writefile{lof}{\addvspace {10\p@ }}
\@writefile{lot}{\addvspace {10\p@ }}
\@writefile{toc}{\contentsline {paragraph}{     }{8}\protected@file@percent }
\@writefile{toc}{\contentsline {section}{\numberline {3.1}Выбор ЯП}{8}\protected@file@percent }
\@writefile{toc}{\contentsline {paragraph}{     }{8}\protected@file@percent }
\@writefile{toc}{\contentsline {section}{\numberline {3.2}Листинг кода алгоритмов}{8}\protected@file@percent }
\@writefile{toc}{\contentsline {paragraph}{     }{8}\protected@file@percent }
\newlabel{some-code}{{3.1}{8}}
\@writefile{lol}{\contentsline {lstlisting}{\numberline {3.1}Стандартный алгоритм}{8}\protected@file@percent }
\newlabel{some-code}{{3.2}{9}}
\@writefile{lol}{\contentsline {lstlisting}{\numberline {3.2}Параллельный стандартный алгоритм}{9}\protected@file@percent }
\@writefile{toc}{\contentsline {section}{\numberline {3.3}Тестирование разработанных функций}{11}\protected@file@percent }
\@writefile{toc}{\contentsline {paragraph}{     }{11}\protected@file@percent }
\@writefile{lof}{\contentsline {figure}{\numberline {3.1}{\ignorespaces Тест №1}}{11}\protected@file@percent }
\newlabel{fig:mpr}{{3.1}{11}}
\@writefile{lof}{\contentsline {figure}{\numberline {3.2}{\ignorespaces Тест №2}}{12}\protected@file@percent }
\newlabel{fig:mpr}{{3.2}{12}}
\@writefile{lof}{\contentsline {figure}{\numberline {3.3}{\ignorespaces Тест №3}}{13}\protected@file@percent }
\newlabel{fig:mpr}{{3.3}{13}}
\@writefile{toc}{\contentsline {paragraph}{}{13}\protected@file@percent }
\@writefile{toc}{\contentsline {section}{\numberline {3.4}Вывод}{14}\protected@file@percent }
\citation{Catalina}
\@writefile{toc}{\contentsline {chapter}{\numberline {4}Исследовательская часть}{15}\protected@file@percent }
\@writefile{lof}{\addvspace {10\p@ }}
\@writefile{lot}{\addvspace {10\p@ }}
\@writefile{toc}{\contentsline {paragraph}{     }{15}\protected@file@percent }
\@writefile{toc}{\contentsline {section}{\numberline {4.1}Сравнение временных затрат алгоритмов}{15}\protected@file@percent }
\@writefile{toc}{\contentsline {paragraph}{     }{15}\protected@file@percent }
\@writefile{toc}{\contentsline {section}{\numberline {4.2}Вывод}{16}\protected@file@percent }
\@writefile{toc}{\contentsline {paragraph}{     }{16}\protected@file@percent }
\@writefile{toc}{\contentsline {chapter}{Заключение}{17}\protected@file@percent }
\@writefile{toc}{\contentsline {paragraph}{     }{17}\protected@file@percent }
\@writefile{toc}{\contentsline {chapter}{Список литературы}{17}\protected@file@percent }
\bibcite{Beloysov}{1}
\bibcite{Swift}{2}
\bibcite{mach}{3}
\bibcite{Catalina}{4}
\bibcite{Code}{5}
