\relax 
\bbl@cs{beforestart}
\catcode `"\active 
\babel@aux{russian}{}
\@writefile{toc}{\contentsline {chapter}{Введение}{2}\protected@file@percent }
\citation{Beloysov}
\citation{Beloysov}
\citation{Gall2012}
\@writefile{toc}{\contentsline {chapter}{\numberline {1}Аналитическая часть}{3}\protected@file@percent }
\@writefile{lof}{\addvspace {10\p@ }}
\@writefile{lot}{\addvspace {10\p@ }}
\@writefile{toc}{\contentsline {section}{\numberline {1.1}Алгоритм Винограда}{3}\protected@file@percent }
\newlabel{formula}{{1.1}{3}}
\newlabel{formula2}{{1.2}{3}}
\@writefile{toc}{\contentsline {section}{\numberline {1.2}Вывод}{4}\protected@file@percent }
\@writefile{toc}{\contentsline {chapter}{\numberline {2}Конструкторская часть}{5}\protected@file@percent }
\@writefile{lof}{\addvspace {10\p@ }}
\@writefile{lot}{\addvspace {10\p@ }}
\@writefile{toc}{\contentsline {section}{\numberline {2.1}Схемы алгоритмов}{5}\protected@file@percent }
\@writefile{lof}{\contentsline {figure}{\numberline {2.1}{\ignorespaces Схема классического алгоритма умножения матриц}}{6}\protected@file@percent }
\newlabel{fig:mpr}{{2.1}{6}}
\@writefile{lof}{\contentsline {figure}{\numberline {2.2}{\ignorespaces Схема алгоритма Винограда}}{7}\protected@file@percent }
\newlabel{fig:mpr}{{2.2}{7}}
\@writefile{lof}{\contentsline {figure}{\numberline {2.3}{\ignorespaces Схема оптимизированного алгоритма Винограда}}{8}\protected@file@percent }
\newlabel{fig:mpr}{{2.3}{8}}
\@writefile{toc}{\contentsline {chapter}{\numberline {3}Технологическая часть}{9}\protected@file@percent }
\@writefile{lof}{\addvspace {10\p@ }}
\@writefile{lot}{\addvspace {10\p@ }}
\@writefile{toc}{\contentsline {section}{\numberline {3.1}Выбор ЯП}{9}\protected@file@percent }
\@writefile{toc}{\contentsline {section}{\numberline {3.2}Листинг кода алгоритмов}{9}\protected@file@percent }
\newlabel{CodeStand}{{3.1}{9}}
\@writefile{lol}{\contentsline {lstlisting}{\numberline {3.1}Стандартный алгоритм умножения матриц}{9}\protected@file@percent }
\newlabel{some-code}{{3.2}{10}}
\@writefile{lol}{\contentsline {lstlisting}{\numberline {3.2}Алгоритм Винограда}{10}\protected@file@percent }
\newlabel{some-code}{{3.3}{11}}
\@writefile{lol}{\contentsline {lstlisting}{\numberline {3.3}Оптимизированный алгоритм Винограда}{11}\protected@file@percent }
\@writefile{toc}{\contentsline {subsection}{\numberline {3.2.1}Оптимизация алгоритма Винограда}{13}\protected@file@percent }
\newlabel{some-code}{{3.4}{14}}
\@writefile{lol}{\contentsline {lstlisting}{\numberline {3.4}Оптимизации алгоритма Винограда №1 и №2}{14}\protected@file@percent }
\newlabel{some-code}{{3.5}{14}}
\@writefile{lol}{\contentsline {lstlisting}{\numberline {3.5}Оптимизации алгоритма Винограда №3}{14}\protected@file@percent }
\@writefile{toc}{\contentsline {section}{\numberline {3.3}Вывод}{15}\protected@file@percent }
\@writefile{toc}{\contentsline {chapter}{\numberline {4}Исследовательская часть}{16}\protected@file@percent }
\@writefile{lof}{\addvspace {10\p@ }}
\@writefile{lot}{\addvspace {10\p@ }}
\@writefile{toc}{\contentsline {section}{\numberline {4.1}Время работы алгоритмов}{16}\protected@file@percent }
\@writefile{toc}{\contentsline {section}{\numberline {4.2}Вывод}{17}\protected@file@percent }
\@writefile{toc}{\contentsline {chapter}{Заключение}{18}\protected@file@percent }
\@writefile{toc}{\contentsline {chapter}{Список литературы}{18}\protected@file@percent }
\bibcite{Beloysov}{1}
\bibcite{swiftlang}{2}
\bibcite{timing}{3}
\bibcite{macOs}{4}
\bibcite{VSCode}{5}
