\relax 
\bbl@cs{beforestart}
\catcode `"\active 
\babel@aux{russian}{}
\@writefile{toc}{\contentsline {chapter}{Введение}{2}\protected@file@percent }
\@writefile{toc}{\contentsline {paragraph}{     }{2}\protected@file@percent }
\@writefile{toc}{\contentsline {chapter}{\numberline {1}Аналитическая часть}{3}\protected@file@percent }
\@writefile{lof}{\addvspace {10\p@ }}
\@writefile{lot}{\addvspace {10\p@ }}
\@writefile{toc}{\contentsline {section}{\numberline {1.1}Описание алгоритмов}{3}\protected@file@percent }
\@writefile{toc}{\contentsline {paragraph}{     }{3}\protected@file@percent }
\@writefile{toc}{\contentsline {subsection}{\numberline {1.1.1}Сортировка пузырьком}{3}\protected@file@percent }
\@writefile{toc}{\contentsline {paragraph}{     }{3}\protected@file@percent }
\@writefile{toc}{\contentsline {subsection}{\numberline {1.1.2}Сортировка вставками}{3}\protected@file@percent }
\@writefile{toc}{\contentsline {paragraph}{     }{3}\protected@file@percent }
\@writefile{toc}{\contentsline {subsection}{\numberline {1.1.3}Быстрая сортировка}{3}\protected@file@percent }
\@writefile{toc}{\contentsline {paragraph}{     }{3}\protected@file@percent }
\@writefile{toc}{\contentsline {chapter}{\numberline {2}Конструкторская часть}{5}\protected@file@percent }
\@writefile{lof}{\addvspace {10\p@ }}
\@writefile{lot}{\addvspace {10\p@ }}
\@writefile{toc}{\contentsline {section}{\numberline {2.1}Схемы алгоритмов}{5}\protected@file@percent }
\@writefile{toc}{\contentsline {paragraph}{     }{5}\protected@file@percent }
\@writefile{lof}{\contentsline {figure}{\numberline {2.1}{\ignorespaces Схема алгоритма сортировки пузырьком с флагом}}{6}\protected@file@percent }
\newlabel{ris:imageSB}{{2.1}{6}}
\@writefile{lof}{\contentsline {figure}{\numberline {2.2}{\ignorespaces Схема алгоритма сортировки вставками}}{7}\protected@file@percent }
\newlabel{ris:imageSI}{{2.2}{7}}
\@writefile{toc}{\contentsline {section}{\numberline {2.2}Трудоемкость алгоритмов}{7}\protected@file@percent }
\@writefile{toc}{\contentsline {subsection}{\numberline {2.2.1}Сортировка пузырьком с флагом}{8}\protected@file@percent }
\@writefile{toc}{\contentsline {subsection}{\numberline {2.2.2}Сортировка вставками}{9}\protected@file@percent }
\@writefile{toc}{\contentsline {subsection}{\numberline {2.2.3}Быстрая сортировка}{9}\protected@file@percent }
\@writefile{toc}{\contentsline {section}{\numberline {2.3}Вывод}{10}\protected@file@percent }
\@writefile{toc}{\contentsline {chapter}{\numberline {3}Технологическая часть}{11}\protected@file@percent }
\@writefile{lof}{\addvspace {10\p@ }}
\@writefile{lot}{\addvspace {10\p@ }}
\@writefile{toc}{\contentsline {section}{\numberline {3.1}Выбор ЯП}{11}\protected@file@percent }
\@writefile{toc}{\contentsline {paragraph}{     }{11}\protected@file@percent }
\@writefile{toc}{\contentsline {section}{\numberline {3.2}Листинг кода}{11}\protected@file@percent }
\@writefile{toc}{\contentsline {paragraph}{     }{11}\protected@file@percent }
\newlabel{bubble}{{3.1}{11}}
\@writefile{lol}{\contentsline {lstlisting}{\numberline {3.1}Алгоритм сортировки пузырьком}{11}\protected@file@percent }
\newlabel{insertion}{{3.2}{12}}
\@writefile{lol}{\contentsline {lstlisting}{\numberline {3.2}Алгоритм сортировки вставками}{12}\protected@file@percent }
\@writefile{toc}{\contentsline {section}{\numberline {3.3}Вывод}{12}\protected@file@percent }
\@writefile{toc}{\contentsline {paragraph}{     }{12}\protected@file@percent }
\@writefile{toc}{\contentsline {chapter}{\numberline {4}Исследовательская часть}{13}\protected@file@percent }
\@writefile{lof}{\addvspace {10\p@ }}
\@writefile{lot}{\addvspace {10\p@ }}
\@writefile{toc}{\contentsline {paragraph}{     }{13}\protected@file@percent }
\@writefile{toc}{\contentsline {section}{\numberline {4.1}Время работы алгоритмов}{13}\protected@file@percent }
\@writefile{toc}{\contentsline {paragraph}{     }{13}\protected@file@percent }
\@writefile{toc}{\contentsline {section}{\numberline {4.2}Вывод}{14}\protected@file@percent }
\@writefile{toc}{\contentsline {paragraph}{     }{14}\protected@file@percent }
\@writefile{toc}{\contentsline {paragraph}{     }{16}\protected@file@percent }
\@writefile{toc}{\contentsline {chapter}{Список литературы}{17}\protected@file@percent }
